MIPI_DDR3_HDMI/sim/Mipi_rx_test/.Xil/Vivado-22692-LAPTOP-H1858A6E/hw_ila_data_1/zip_work/waveform.vcd
$date
        2023-Nov-23 20:18:55
$end
$version
        Vivado v2022.2 (64-bit)
$end
$timescale
        1ps
$end
$scope module dut $end
$var reg 8 " O_Mipi_CSI_Byte_Lane0_Data [7:0] $end
$var reg 8 * O_Mipi_CSI_Byte_Lane1_Data [7:0] $end
$var reg 1 2 _TRIGGER $end
$var reg 1 3 _WINDOW $end
$var reg 1 4 _GAP $end
$upscope $end
$enddefinitions $end
#0
$dumpvars
b0 "
b1010101 *
02
13
04
$end
#16
b100 "
#17
b0 "
#59
b10000 "
#60
b0 "
#71
b111100 "
#72
b0 "
#87
b1100000 "
#88
b1 "
#89
b0 "
#100
12
#101
b11110000 "
#102
b11111111 "
#104
b0 "
#141
b10000000 "
#142
b1 "
#143
b0 "
#183
b11111110 "
#184
b11111111 "
#190
b11 "
#191
b0 "
#212
b11010000 "
#213
b11111111 "
#215
b0 "
#226
b1000000 "
#227
b0 "
#243
b11011100 "
#244
b11111111 "
#251
b0 "
#259
b11110000 "
#260
b11111111 "
#268
b111 "
#269
b0 "
#315
b11111100 "
#316
b11111111 "
#318
b1111 "
#319
b0 "
#356
b11000100 "
#357
b11111111 "
#385
b1111111 "
#386
b0 "
#392
b11110000 "
#393
b11111111 "
#433
b11111100 "
#434
b11111111 "
#444
b11 "
#445
b0 "
#477
b11111000 "
#478
b11111111 "
#509
b11110101 "
#510
b11111111 "
#518
b11111 "
#519
b0 "
#539
b11111110 "
#540
b111111 "
#541
b0 "
#560
b11111111 "
#602
b0 "
#645
b11 "
#646
b0 "
#658
b111100 "
#659
b0 "
#663
b11111100 "
#664
b11111111 "
#673
b1 "
#674
b0 "
#688
b11010100 "
#689
b1 "
#690
b11111100 "
#691
b11111111 "
#693
b0 "
#705
b11111111 "
#729
b1 "
#730
b0 "
#774
b11111111 "
#779
b1111 "
#780
b0 "
#805
b10000000 "
#806
b11111101 "
#807
b11111111 "
#810
b1111111 "
#811
b0 "
#815
b11000 "
#816
b0 "
#821
b11111100 "
#822
b11111111 "
#825
b111111 "
b101 *
#826
b0 "
b0 *
#879
b11111111 "
b1010101 *
#898
b11111 "
b101 *
#899
b0 "
b0 *
#930
b100000 "
b1000 *
#931
b10000000 "
b100000 *
#932
b0 "
b10000000 *
#933
b10 "
b0 *
#934
b1000 "
b10 *
#935
b100000 "
b1000 *
#936
b10000000 "
b100000 *
#937
b0 "
b10000000 *
#938
b10 "
b0 *
#939
b1000 "
b10 *
#940
b11100000 "
b10111000 *
#941
b1010 "
b11000000 *
#942
b101011 "
b10 *
#943
b10101100 "
b1011 *
#944
b10110000 "
b101100 *
#945
b11000010 "
b10110000 *
#946
b1010 "
b11000000 *
#947
b101011 "
b10 *
#948
b10101100 "
b1011 *
#949
b10110000 "
b101100 *
#950
b11000010 "
b10110000 *
#951
b1010 "
b0 *
#952
b1000 "
b111001 *
#953
b100000 "
b11100100 *
#954
b10000000 "
b10010000 *
#955
b0 "
b1000011 *
#956
b10 "
b1110 *
#957
b1000 "
b111001 *
#958
b100000 "
b11100100 *
#959
b10000000 "
b10010000 *
#960
b0 "
b1000011 *
#961
b10 "
b1110 *
#962
b1000 "
b111001 *
#963
b100000 "
b11100100 *
#964
b11110000 "
b11111100 *
#965
b11111111 "
b11111111 *
#1009
b11101111 "
b11011011 *
#1010
b11111111 "
b1010101 *
#1025
b101 "
#1026
b0 "
#1066
b100 "
#1067
b0 "
#1082
b1 *
#1083
b0 *
#1135
b11100000 "
b1010000 *
#1136
b11111111 "
b1010101 *
#1155
b111 "
b1 *
#1156
b0 "
b0 *
#1186
b10000000 *
#1187
b10 "
b0 *
#1188
b1000 "
b10 *
#1189
b100000 "
b1000 *
#1190
b10000000 "
b100000 *
#1191
b0 "
b10000000 *
#1192
b10 "
b0 *
#1193
b1000 "
b10 *
#1194
b100000 "
b1000 *
#1195
b10000000 "
b100000 *
#1196
b0 "
b10000000 *
#1197
b11101110 "
b1011 *
#1198
b10111010 "
b101110 *
#1199
b11101011 "
b10111000 *
#1200
b10101110 "
b11100000 *
#1201
b10111011 "
b10000010 *
#1202
b11101110 "
b1011 *
#1203
b10111010 "
b101110 *
#1204
b11101011 "
b10111000 *
#1205
b10101110 "
b11100000 *
#1206
b10111011 "
b10000010 *
#1207
b11101110 "
b1011 *
#1208
b1001010 "
b11010110 *
#1209
b10 "
b1010001 *
#1210
b1001 "
b1000111 *
#1211
b100100 "
b11101 *
#1212
b10010000 "
b1110101 *
#1213
b1000000 "
b11010100 *
#1214
b10 "
b1010001 *
#1215
b1001 "
b1000111 *
#1216
b100100 "
b11101 *
#1217
b10010000 "
b1110101 *
#1218
b1000000 "
b11010100 *
#1219
b10 "
b1010001 *
#1220
b1001 "
b111 *
#1221
b100 "
b1 *
#1222
b10010 "
b100 *
#1223
b1001000 "
b10000 *
#1224
b100000 "
b1000000 *
#1225
b10000001 "
b0 *
#1226
b100 "
b1 *
#1227
b10010 "
b100 *
#1228
b1001000 "
b10000 *
#1229
b100000 "
b1000000 *
#1230
b10000001 "
b0 *
#1231
b100 "
b1 *
#1232
b10 "
b0 *
#1233
b1000 "
b1 *
#1234
b100000 "
b100 *
#1235
b10000000 "
b10000 *
#1236
b0 "
b1000000 *
#1237
b10 "
b0 *
#1238
b1000 "
b1 *
#1239
b100000 "
b100 *
#1240
b10000000 "
b10000 *
#1241
b0 "
b1000000 *
#1242
b10 "
b0 *
#1243
b11000 "
b1 *
#1244
b1000011 "
#1245
b1100 "
b100 *
#1246
b110001 "
b10000 *
#1247
b11000100 "
b1000000 *
#1248
b10000 "
b0 *
#1249
b1000011 "
b1 *
#1250
b1100 "
b100 *
#1251
b110001 "
b10000 *
#1252
b11000100 "
b1000000 *
#1253
b10000 "
b0 *
#1254
b1000011 "
b1 *
#1255
b1100 "
b100 *
#1256
b10000 "
b10001000 *
#1257
b1000000 "
b100000 *
#1258
b0 "
b10000010 *
#1259
b1 "
b1000 *
#1260
b100 "
b100010 *
#1261
b10000 "
b10001000 *
#1262
b1000000 "
b100000 *
#1263
b0 "
b10000010 *
#1264
b1 "
b1000 *
#1265
b100 "
b100010 *
#1266
b10000 "
b10001000 *
#1267
b11 *
#1268
b1000000 "
b1100 *
#1269
b0 "
b110000 *
#1270
b1 "
b11000000 *
#1271
b100 "
b0 *
#1272
b10000 "
b11 *
#1273
b1000000 "
b1100 *
#1274
b0 "
b110000 *
#1275
b1 "
b11000000 *
#1276
b100 "
b0 *
#1277
b10000 "
b11 *
#1278
b100 *
#1279
b1010000 "
b10100 *
#1280
b1000000 "
b1010000 *
#1281
b1 "
b1000000 *
#1282
b101 "
b1 *
#1283
b10100 "
b101 *
#1284
b1010000 "
b10100 *
#1285
b1000000 "
b1010000 *
#1286
b1 "
b1000000 *
#1287
b101 "
b1 *
#1288
b10100 "
b101 *
#1289
b1010000 "
b10100 *
#1290
b1000000 "
b10000 *
#1291
b1001000 "
#1292
b100000 "
b1000000 *
#1293
b10000001 "
b0 *
#1294
b100 "
b1 *
#1295
b10010 "
b100 *
#1296
b1001000 "
b10000 *
#1297
b100000 "
b1000000 *
#1298
b10000001 "
b0 *
#1299
b100 "
b1 *
#1300
b10010 "
b100 *
#1301
b1001000 "
b10000 *
#1302
b1000000 "
b100000 *
#1303
b0 "
b10000010 *
#1304
b1 "
b1000 *
#1305
b100 "
b100010 *
#1306
b10000 "
b10001000 *
#1307
b1000000 "
b100000 *
#1308
b0 "
b10000010 *
#1309
b1 "
b1000 *
#1310
b100 "
b100010 *
#1311
b10000 "
b10001000 *
#1312
b1000000 "
b100000 *
#1313
b110 *
#1314
b0 "
b10000 *
#1315
b1 "
b1000000 *
#1316
b100 "
b0 *
#1317
b10000 "
b1 *
#1318
b1000000 "
b100 *
#1319
b0 "
b10000 *
#1320
b1 "
b1000000 *
#1321
b100 "
b0 *
#1322
b10000 "
b1 *
#1323
b1000000 "
b100 *
#1324
b0 "
b10000 *
#1325
b1 "
b1000000 *
#1327
b111 "
b1 *
#1328
b11100 "
b101 *
#1329
b1110000 "
b10100 *
#1330
b11000000 "
b1010000 *
#1331
b1 "
b1000000 *
#1332
b111 "
b1 *
#1333
b11100 "
b101 *
#1334
b1110000 "
b10100 *
#1335
b11000000 "
b1010000 *
#1336
b1 "
b1000000 *
#1337
b100011 "
#1338
b10000001 "
b0 *
#1339
b100 "
b1 *
#1340
b10010 "
b100 *
#1341
b1001000 "
b10000 *
#1342
b100000 "
b1000000 *
#1343
b10000001 "
b0 *
#1344
b100 "
b1 *
#1345
b10010 "
b100 *
#1346
b1001000 "
b10000 *
#1347
b100000 "
b1000000 *
#1348
b1 "
b10000000 *
#1349
b1000 *
#1350
b100 "
b100010 *
#1351
b10000 "
b10001000 *
#1352
b1000000 "
b100000 *
#1353
b0 "
b10000010 *
#1354
b1 "
b1000 *
#1355
b100 "
b100010 *
#1356
b10000 "
b10001000 *
#1357
b1000000 "
b100000 *
#1358
b0 "
b10000010 *
#1359
b1 "
b1000 *
#1360
b100 "
b100010 *
#1361
b0 *
#1362
b10000 "
#1363
b1000000 "
#1364
b0 "
#1365
b1 "
#1366
b100 "
#1367
b10000 "
#1368
b1000000 "
#1369
b0 "
#1370
b1 "
#1371
b100 "
#1373
b10000 "
b1 *
#1374
b1000000 "
b100 *
#1375
b0 "
b10000 *
#1376
b1 "
b1000000 *
#1377
b100 "
b0 *
#1378
b10000 "
b1 *
#1379
b1000000 "
b100 *
#1380
b0 "
b10000 *
#1381
b1 "
b1000000 *
#1382
b100 "
b0 *
#1383
b0 "
b1 *
#1384
b100 "
#1385
b10000 "
b100 *
#1386
b1000000 "
b10000 *
#1387
b0 "
b1000000 *
#1388
b1 "
b0 *
#1389
b100 "
b1 *
#1390
b10000 "
b100 *
#1391
b1000000 "
b10000 *
#1392
b0 "
b1000000 *
#1393
b1 "
b0 *
#1394
b100 "
b1 *
#1395
b10000 "
b100 *
#1396
b1000 "
b1000100 *
#1397
b100000 "
b10000 *
#1398
b10000000 "
b1000001 *
#1399
b0 "
b100 *
#1400
b10 "
b10001 *
#1401
b1000 "
b1000100 *
#1402
b100000 "
b10000 *
#1403
b10000000 "
b1000001 *
#1404
b0 "
b100 *
#1405
b10 "
b10001 *
#1406
b1000 "
b1000100 *
#1407
b10000 "
b1 *
#1408
b1000000 "
b100 *
#1409
b0 "
b10000 *
#1410
b1 "
b1000000 *
#1411
b100 "
b0 *
#1412
b10000 "
b1 *
#1413
b1000000 "
b100 *
#1414
b0 "
b10000 *
#1415
b1 "
b1000000 *
#1416
b100 "
b0 *
#1417
b10000 "
b1 *
#1418
b100 *
#1419
b1110000 "
b10000 *
#1420
b11000000 "
b1000000 *
#1421
b1 "
b0 *
#1422
b111 "
b1 *
#1423
b11100 "
b100 *
#1424
b1110000 "
b10000 *
#1425
b11000000 "
b1000000 *
#1426
b1 "
b0 *
#1427
b111 "
b1 *
#1428
b11100 "
b100 *
#1429
b1110000 "
b10000 *
#1430
b11000000 "
b0 *
#1431
b1000 "
b1100 *
#1432
b100000 "
b110000 *
#1433
b10000000 "
b11000000 *
#1434
b0 "
b0 *
#1435
b10 "
b11 *
#1436
b1000 "
b1100 *
#1437
b100000 "
b110000 *
#1438
b10000000 "
b11000000 *
#1439
b0 "
b0 *
#1440
b10 "
b11 *
#1441
b1000 "
b1100 *
#1442
b0 "
b10000000 *
#1443
b11 *
#1444
b1110 *
#1445
b111000 *
#1446
b11100000 *
#1447
b10000000 *
#1448
b11 *
#1449
b1110 *
#1450
b111000 *
#1451
b11100000 *
#1452
b10000000 *
#1453
b1000000 "
b10011 *
#1454
b0 "
b1000000 *
#1455
b1 "
b0 *
#1456
b100 "
b1 *
#1457
b10000 "
b100 *
#1458
b1000000 "
b10000 *
#1459
b0 "
b1000000 *
#1460
b1 "
b0 *
#1461
b100 "
b1 *
#1462
b10000 "
b100 *
#1463
b1000000 "
b10000 *
#1464
b0 "
b1000000 *
#1465
b1 "
b0 *
#1466
b0 "
b1000000 *
#1467
b10 "
b0 *
#1468
b1000 "
b1 *
#1469
b100000 "
b100 *
#1470
b10000000 "
b10000 *
#1471
b0 "
b1000000 *
#1472
b10 "
b0 *
#1473
b1000 "
b1 *
#1474
b100000 "
b100 *
#1475
b10000000 "
b10000 *
#1476
b0 "
b1000000 *
#1477
b10 "
b110000 *
#1478
b1 "
b11000000 *
#1479
b100 "
b0 *
#1480
b10000 "
b11 *
#1481
b1000000 "
b1100 *
#1482
b0 "
b110000 *
#1483
b1 "
b11000000 *
#1484
b100 "
b0 *
#1485
b10000 "
b11 *
#1486
b1000000 "
b1100 *
#1487
b0 "
b110000 *
#1488
b1 "
b10000000 *
#1489
b0 "
b10 *
#1490
b1010 *
#1491
b101000 *
#1492
b10100000 *
#1493
b10000000 *
#1494
b10 *
#1495
b1010 *
#1496
b101000 *
#1497
b10100000 *
#1498
b10000000 *
#1499
b10 *
#1500
b1010 *
#1501
b100 "
b1 *
#1502
b10000 "
b100 *
#1503
b1000000 "
b10000 *
#1504
b0 "
b1000000 *
#1505
b1 "
b0 *
#1506
b100 "
b1 *
#1507
b10000 "
b100 *
#1508
b1000000 "
b10000 *
#1509
b0 "
b1000000 *
#1510
b1 "
b0 *
#1511
b100 "
b1 *
#1512
b0 "
b0 *
#1513
b1 *
#1514
b100 *
#1515
b10000 *
#1516
b1000000 *
#1517
b0 *
#1518
b1 *
#1519
b100 *
#1520
b10000 *
#1521
b1000000 *
#1522
b0 *
#1523
b100000 "
b1 *
#1524
b10000100 "
#1525
b10000 "
b100 *
#1526
b1000010 "
b10000 *
#1527
b1000 "
b1000000 *
#1528
b100001 "
b0 *
#1529
b10000100 "
b1 *
#1530
b10000 "
b100 *
#1531
b1000010 "
b10000 *
#1532
b1000 "
b1000000 *
#1533
b100001 "
b0 *
#1534
b10000100 "
b1 *
#1535
b10000 "
b100 *
#1536
b10001000 *
#1537
b1000000 "
b100000 *
#1538
b0 "
b10000010 *
#1539
b1 "
b1000 *
#1540
b100 "
b100010 *
#1541
b10000 "
b10001000 *
#1542
b1000000 "
b100000 *
#1543
b0 "
b10000010 *
#1544
b1 "
b1000 *
#1545
b100 "
b100010 *
#1546
b10000 "
b10001000 *
#1547
b0 "
b0 *
#1558
b10000 "
b100 *
#1559
b1000000 "
b10100 *
#1560
b0 "
b1010000 *
#1561
b1 "
b1000000 *
#1562
b100 "
b1 *
#1563
b10000 "
b101 *
#1564
b1000000 "
b10100 *
#1565
b0 "
b1010000 *
#1566
b1 "
b1000000 *
#1567
b100 "
b1 *
#1568
b10000 "
b101 *
#1569
b1000000 "
b10100 *
#1570
b0 "
b10000 *
#1571
b11000 "
#1572
b1100000 "
b1000000 *
#1573
b10000000 "
b0 *
#1574
b1 "
b1 *
#1575
b110 "
b100 *
#1576
b11000 "
b10000 *
#1577
b1100000 "
b1000000 *
#1578
b10000000 "
b0 *
#1579
b1 "
b1 *
#1580
b110 "
b100 *
#1581
b11000 "
b10000 *
#1582
b1000000 "
b0 *
#1583
b0 "
b10 *
#1584
b1 "
b1000 *
#1585
b100 "
b100000 *
#1586
b10000 "
b10000000 *
#1587
b1000000 "
b0 *
#1588
b0 "
b10 *
#1589
b1 "
b1000 *
#1590
b100 "
b100000 *
#1591
b10000 "
b10000000 *
#1592
b1000000 "
b0 *
#1593
b10010 *
#1594
b0 "
b1000000 *
#1595
b1 "
b0 *
#1596
b100 "
b1 *
#1597
b10000 "
b100 *
#1598
b1000000 "
b10000 *
#1599
b0 "
b1000000 *
#1600
b1 "
b0 *
#1601
b100 "
b1 *
#1602
b10000 "
b100 *
#1603
b1000000 "
b10000 *
#1604
b0 "
b1000000 *
#1605
b1 "
b0 *
#1606
b0 "
b110000 *
#1607
b10 "
b11000000 *
#1608
b1000 "
b0 *
#1609
b100000 "
b11 *
#1610
b10000000 "
b1100 *
#1611
b0 "
b110000 *
#1612
b10 "
b11000000 *
#1613
b1000 "
b0 *
#1614
b100000 "
b11 *
#1615
b10000000 "
b1100 *
#1616
b0 "
b110000 *
#1617
b10000110 "
b1000000 *
#1618
b10000 "
b0 *
#1619
b1000010 "
b1 *
#1620
b1000 "
b100 *
#1621
b100001 "
b10000 *
#1622
b10000100 "
b1000000 *
#1623
b10000 "
b0 *
#1624
b1000010 "
b1 *
#1625
b1000 "
b100 *
#1626
b100001 "
b10000 *
#1627
b10000100 "
b1000000 *
#1628
b1000000 "
b10010000 *
#1629
b0 "
b1000000 *
#1630
b1 "
b10 *
#1631
b100 "
b1001 *
#1632
b10000 "
b100100 *
#1633
b1000000 "
b10010000 *
#1634
b0 "
b1000000 *
#1635
b1 "
b10 *
#1636
b100 "
b1001 *
#1637
b10000 "
b100100 *
#1638
b1000000 "
b10010000 *
#1639
b0 "
b1000000 *
#1640
b1 "
b10 *
#1641
b0 "
b0 *
#1652
b100 "
b1 *
#1653
b10000 "
b101 *
#1654
b1000000 "
b10100 *
#1655
b0 "
b1010000 *
#1656
b1 "
b1000000 *
#1657
b100 "
b1 *
#1658
b10000 "
b101 *
#1659
b1000000 "
b10100 *
#1660
b0 "
b1010000 *
#1661
b1 "
b1000000 *
#1662
b100 "
b1 *
#1663
b10000000 "
#1664
b100 "
#1665
b10010 "
b100 *
#1666
b1001000 "
b10000 *
#1667
b100000 "
b1000000 *
#1668
b10000001 "
b0 *
#1669
b100 "
b1 *
#1670
b10010 "
b100 *
#1671
b1001000 "
b10000 *
#1672
b100000 "
b1000000 *
#1673
b10000001 "
b0 *
#1674
b100 "
b1 *
#1675
b10010 "
b100 *
#1676
b1100 "
b1000 *
#1677
b110000 "
b100000 *
#1678
b11000000 "
b10000000 *
#1679
b0 "
b0 *
#1680
b11 "
b10 *
#1681
b1100 "
b1000 *
#1682
b110000 "
b100000 *
#1683
b11000000 "
b10000000 *
#1684
b0 "
b0 *
#1685
b11 "
b10 *
#1686
b1100 "
b1000 *
#1687
b10000 "
b100 *
#1688
b1000000 "
b10000 *
#1689
b0 "
b1000000 *
#1690
b1 "
b0 *
#1691
b100 "
b1 *
#1692
b10000 "
b100 *
#1693
b1000000 "
b10000 *
#1694
b0 "
b1000000 *
#1695
b1 "
b0 *
#1696
b100 "
b1 *
#1697
b10000 "
b100 *
#1699
b1100000 "
b10100 *
#1700
b10000000 "
b1010000 *
#1701
b1 "
b1000000 *
#1702
b110 "
b1 *
#1703
b11000 "
b101 *
#1704
b1100000 "
b10100 *
#1705
b10000000 "
b1010000 *
#1706
b1 "
b1000000 *
#1707
b110 "
b1 *
#1708
b11000 "
b101 *
#1709
b1100000 "
b10100 *
#1710
b10000000 "
b10000 *
#1711
b1001000 "
#1712
b100000 "
b1000000 *
#1713
b10000001 "
b0 *
#1714
b100 "
b1 *
#1715
b10010 "
b100 *
#1716
b1001000 "
b10000 *
#1717
b100000 "
b1000000 *
#1718
b10000001 "
b0 *
#1719
b100 "
b1 *
#1720
b10010 "
b100 *
#1721
b1001000 "
b10000 *
#1722
b1000000 "
b100000 *
#1723
b0 "
b10000010 *
#1724
b1 "
b1000 *
#1725
b100 "
b100010 *
#1726
b10000 "
b10001000 *
#1727
b1000000 "
b100000 *
#1728
b0 "
b10000010 *
#1729
b1 "
b1000 *
#1730
b100 "
b100010 *
#1731
b10000 "
b10001000 *
#1732
b1000000 "
b100000 *
#1733
b10010 *
#1734
b0 "
b1000000 *
#1735
b1 "
b0 *
#1736
b100 "
b1 *
#1737
b10000 "
b100 *
#1738
b1000000 "
b10000 *
#1739
b0 "
b1000000 *
#1740
b1 "
b0 *
#1741
b100 "
b1 *
#1742
b10000 "
b100 *
#1743
b1000000 "
b10000 *
#1744
b0 "
b1000000 *
#1745
b1 "
#1747
b110 "
b1 *
#1748
b11000 "
b101 *
#1749
b1100000 "
b10100 *
#1750
b10000000 "
b1010000 *
#1751
b1 "
b1000000 *
#1752
b110 "
b1 *
#1753
b11000 "
b101 *
#1754
b1100000 "
b10100 *
#1755
b10000000 "
b1010000 *
#1756
b1 "
b1000000 *
#1757
b100010 "
#1758
b10000001 "
b0 *
#1759
b100 "
b1 *
#1760
b10010 "
b100 *
#1761
b1001000 "
b10000 *
#1762
b100000 "
b1000000 *
#1763
b10000001 "
b0 *
#1764
b100 "
b1 *
#1765
b10010 "
b100 *
#1766
b1001000 "
b10000 *
#1767
b100000 "
b1000000 *
#1768
b10000001 "
b10000000 *
#1769
b0 "
b100 *
#1770
b10 "
b10010 *
#1771
b1000 "
b1001000 *
#1772
b100000 "
b100000 *
#1773
b10000000 "
b10000001 *
#1774
b0 "
b100 *
#1775
b10 "
b10010 *
#1776
b1000 "
b1001000 *
#1777
b100000 "
b100000 *
#1778
b10000000 "
b10000001 *
#1779
b0 "
b100 *
#1780
b10 "
b10010 *
#1781
b100 "
b1 *
#1782
b10000 "
b100 *
#1783
b1000000 "
b10000 *
#1784
b0 "
b1000000 *
#1785
b1 "
b0 *
#1786
b100 "
b1 *
#1787
b10000 "
b100 *
#1788
b1000000 "
b10000 *
#1789
b0 "
b1000000 *
#1790
b1 "
b0 *
#1791
b100 "
b1 *
#1793
b11000 "
b101 *
#1794
b1100000 "
b10100 *
#1795
b10000000 "
b1010000 *
#1796
b1 "
b1000000 *
#1797
b110 "
b1 *
#1798
b11000 "
b101 *
#1799
b1100000 "
b10100 *
#1800
b10000000 "
b1010000 *
#1801
b1 "
b1000000 *
#1802
b110 "
b1 *
#1803
b10001000 "
#1804
b100 "
#1805
b10010 "
b100 *
#1806
b1001000 "
b10000 *
#1807
b100000 "
b1000000 *
#1808
b10000001 "
b0 *
#1809
b100 "
b1 *
#1810
b10010 "
b100 *
#1811
b1001000 "
b10000 *
#1812
b100000 "
b1000000 *
#1813
b10000001 "
b0 *
#1814
b100 "
b1 *
#1815
b10010 "
b100 *
#1816
b10000 "
b10001000 *
#1817
b1000000 "
b100000 *
#1818
b0 "
b10000010 *
#1819
b1 "
b1000 *
#1820
b100 "
b100010 *
#1821
b10000 "
b10001000 *
#1822
b1000000 "
b100000 *
#1823
b0 "
b10000010 *
#1824
b1 "
b1000 *
#1825
b100 "
b100010 *
#1826
b10000 "
b10001000 *
#1827
b100 *
#1828
b1000000 "
b10000 *
#1829
b0 "
b1000000 *
#1830
b1 "
b0 *
#1831
b100 "
b1 *
#1832
b10000 "
b100 *
#1833
b1000000 "
b10000 *
#1834
b0 "
b1000000 *
#1835
b1 "
b0 *
#1836
b100 "
b1 *
#1837
b10000 "
b100 *
#1839
b1100000 "
b10100 *
#1840
b10000000 "
b1010000 *
#1841
b1 "
b1000000 *
#1842
b110 "
b1 *
#1843
b11000 "
b101 *
#1844
b1100000 "
b10100 *
#1845
b10000000 "
b1010000 *
#1846
b1 "
b1000000 *
#1847
b110 "
b1 *
#1848
b11000 "
b101 *
#1849
b1100000 "
b10100 *
#1850
b10000000 "
b10000 *
#1851
b1001000 "
#1852
b100000 "
b1000000 *
#1853
b10000001 "
b0 *
#1854
b100 "
b1 *
#1855
b10010 "
b100 *
#1856
b1001000 "
b10000 *
#1857
b100000 "
b1000000 *
#1858
b10000001 "
b0 *
#1859
b100 "
b1 *
#1860
b10010 "
b100 *
#1861
b1001000 "
b10000 *
#1862
b1000000 "
b100000 *
#1863
b0 "
b10000010 *
#1864
b1 "
b1000 *
#1865
b100 "
b100010 *
#1866
b10000 "
b10001000 *
#1867
b1000000 "
b100000 *
#1868
b0 "
b10000010 *
#1869
b1 "
b1000 *
#1870
b100 "
b100010 *
#1871
b10000 "
b10001000 *
#1872
b1000000 "
b100000 *
#1873
b10010 *
#1874
b0 "
b1001100 *
#1875
b1 "
b110000 *
#1876
b100 "
b11000001 *
#1877
b10000 "
b100 *
#1878
b1000000 "
b10011 *
#1879
b0 "
b1001100 *
#1880
b1 "
b110000 *
#1881
b100 "
b11000001 *
#1882
b10000 "
b100 *
#1883
b1000000 "
b10011 *
#1884
b0 "
b1001100 *
#1885
b1 "
b110000 *
#1886
b1000000 *
#1887
b110 "
b0 *
#1888
b11000 "
b1 *
#1889
b1100000 "
b100 *
#1890
b10000000 "
b10000 *
#1891
b1 "
b1000000 *
#1892
b110 "
b0 *
#1893
b11000 "
b1 *
#1894
b1100000 "
b100 *
#1895
b10000000 "
b10000 *
#1896
b1 "
b1000000 *
#1897
b100010 "
#1898
b10000001 "
b0 *
#1899
b100 "
b1 *
#1900
b10010 "
b100 *
#1901
b1001000 "
b10000 *
#1902
b100000 "
b1000000 *
#1903
b10000001 "
b0 *
#1904
b100 "
b1 *
#1905
b10010 "
b100 *
#1906
b1001000 "
b10000 *
#1907
b100000 "
b1000000 *
#1908
b1 "
b10000000 *
#1909
b1000 *
#1910
b100 "
b100010 *
#1911
b10000 "
b10001000 *
#1912
b1000000 "
b100000 *
#1913
b0 "
b10000010 *
#1914
b1 "
b1000 *
#1915
b100 "
b100010 *
#1916
b10000 "
b10001000 *
#1917
b1000000 "
b100000 *
#1918
b0 "
b10000010 *
#1919
b1 "
b1000 *
#1920
b100 "
b100010 *
#1921
b1 *
#1922
b10000 "
b100 *
#1923
b1000000 "
b10000 *
#1924
b0 "
b1000000 *
#1925
b1 "
b0 *
#1926
b100 "
b1 *
#1927
b10000 "
b100 *
#1928
b1000000 "
b10000 *
#1929
b0 "
b1000000 *
#1930
b1 "
b0 *
#1931
b100 "
b1 *
#1933
b11000 "
b101 *
#1934
b1100000 "
b10100 *
#1935
b10000000 "
b1010000 *
#1936
b1 "
b1000000 *
#1937
b110 "
b1 *
#1938
b11000 "
b101 *
#1939
b1100000 "
b10100 *
#1940
b10000000 "
b1010000 *
#1941
b1 "
b1000000 *
#1942
b110 "
b1 *
#1943
b10001000 "
#1944
b10 "
#1945
b1010 "
b100 *
#1946
b101000 "
b10000 *
#1947
b10100000 "
b1000000 *
#1948
b10000000 "
b0 *
#1949
b10 "
b1 *
#1950
b1010 "
b100 *
#1951
b101000 "
b10000 *
#1952
b10100000 "
b1000000 *
#1953
b10000000 "
b0 *
#1954
b10 "
b1 *
#1955
b1010 "
b100 *
#1956
b1000 "
b1000000 *
#1957
b100000 "
b0 *
#1958
b10000000 "
b1 *
#1959
b0 "
b100 *
#1960
b10 "
b10000 *
#1961
b1000 "
b1000000 *
#1962
b100000 "
b0 *
#1963
b10000000 "
b1 *
#1964
b0 "
b100 *
#1965
b10 "
b10000 *
#1966
b1000 "
b1000000 *
#1967
b10000 "
b100 *
#1968
b1000000 "
b10000 *
#1969
b0 "
b1000000 *
#1970
b1 "
b0 *
#1971
b100 "
b1 *
#1972
b10000 "
b100 *
#1973
b1000000 "
b10000 *
#1974
b0 "
b1000000 *
#1975
b1 "
b0 *
#1976
b100 "
b1 *
#1977
b10000 "
b100 *
#1979
b1100000 "
b10100 *
#1980
b10000000 "
b1010000 *
#1981
b1 "
b1000000 *
#1982
b110 "
b1 *
#1983
b11000 "
b101 *
#1984
b1100000 "
b10100 *
#1985
b10000000 "
b1010000 *
#1986
b1 "
b1000000 *
#1987
b110 "
b1 *
#1988
b11000 "
b101 *
#1989
b1100000 "
b10100 *
#1990
b10000000 "
b10000 *
#1991
b1001000 "
#1992
b100000 "
b1000000 *
#1993
b10000001 "
b0 *
#1994
b100 "
b1 *
#1995
b10010 "
b100 *
#1996
b1001000 "
b10000 *
#1997
b100000 "
b1000000 *
#1998
b10000001 "
b0 *
#1999
b100 "
b1 *
#2000
b10010 "
b100 *
#2001
b1001000 "
b10000 *
#2002
b1000000 "
b100000 *
#2003
b0 "
b10000010 *
#2004
b1 "
b1000 *
#2005
b100 "
b100010 *
#2006
b10000 "
b10001000 *
#2007
b1000000 "
b100000 *
#2008
b0 "
b10000010 *
#2009
b1 "
b1000 *
#2010
b100 "
b100010 *
#2011
b10000 "
b10001000 *
#2012
b1000000 "
b100000 *
#2013
b10 *
#2014
b0 "
b0 *
#2015
b1 "
#2016
b100 "
#2017
b10000 "
#2018
b1000000 "
#2019
b0 "
#2020
b1 "
#2021
b100 "
#2022
b10000 "
#2023
b1000000 "
#2024
b0 "
#2025
b1 "
b1000000 *
#2027
b111 "
b1 *
#2028
b11100 "
b101 *
#2029
b1110000 "
b10100 *
#2030
b11000000 "
b1010000 *
#2031
b1 "
b1000000 *
#2032
b111 "
b1 *
#2033
b11100 "
b101 *
#2034
b1110000 "
b10100 *
#2035
b11000000 "
b1010000 *
#2036
b1 "
b1000000 *
#2037
b100011 "
#2038
b10000001 "
b0 *
#2039
b100 "
b1 *
#2040
b10010 "
b100 *
#2041
b1001000 "
b10000 *
#2042
b100000 "
b1000000 *
#2043
b10000001 "
b0 *
#2044
b100 "
b1 *
#2045
b10010 "
b100 *
#2046
b1001000 "
b10000 *
#2047
b100000 "
b1000000 *
