MIPI_DDR3_HDMI/prj/MIPI_DDR3_HDMI/.Xil/Vivado-29420-LAPTOP-H1858A6E/hw_ila_data_1/zip_work/waveform.vcd
$date
        2024-Jan-06 22:49:21
$end
$version
        Vivado v2022.2 (64-bit)
$end
$timescale
        1ps
$end
$scope module dut $end
$var reg 3 " DMA_Custom/wr_index [2:0] $end
$var reg 1 % DMA_Custom/Pose_Wr_Rst_Sync $end
$var reg 8 & DMA_Custom/w_brust_cnt [7:0] $end
$var reg 32 . DMA_Custom/m_axi_awaddr [31:0] $end
$var reg 3 N DMA_Custom/rd_index [2:0] $end
$var reg 32 Q DMA_Custom/m_axi_araddr [31:0] $end
$var reg 32 q DMA_Custom/rd_base_addr [31:0] $end
$var reg 1 3" DMA_Custom/Rd_Rst_Sync_1 $end
$var reg 3 4" DMA_Custom/r_Rd_Rst_Sync [2:0] $end
$var reg 1 7" DMA_Custom/Ar_running $end
$var reg 1 8" DMA_Custom/Aw_running $end
$var reg 1 9" DMA_Custom/<const0>_1 $end
$var reg 1 :" DMA_Custom/<const0>_2 $end
$var reg 1 ;" DMA_Custom/<const0>_3 $end
$var reg 1 <" DMA_Custom/<const0>_4 $end
$var reg 1 =" DMA_Custom/<const0>_5 $end
$var reg 1 >" DMA_Custom/<const0>_6 $end
$var reg 1 ?" DMA_Custom/<const0>_7 $end
$var reg 1 @" DMA_Custom/Rd_Rst_Sync $end
$var reg 1 A" DMA_Custom/<const0>_8 $end
$var reg 1 B" DMA_Custom/<const0>_9 $end
$var reg 1 C" DMA_Custom/<const0>_10 $end
$var reg 1 D" DMA_Custom/<const0>_11 $end
$var reg 1 E" DMA_Custom/<const0>_12 $end
$var reg 1 F" DMA_Custom/<const0>_13 $end
$var reg 1 G" DMA_Custom/<const0> $end
$var reg 1 H" _TRIGGER $end
$var reg 1 I" _WINDOW $end
$var reg 1 J" _GAP $end
$upscope $end
$enddefinitions $end
#0
$dumpvars
b1 "
0%
b0 &
b1011011011010000000000 .
b11 N
b11111101001000000000000 Q
b11111101001000000000000 q
13"
b111 4"
07"
08"
09"
0:"
0;"
0<"
0="
0>"
0?"
1@"
0A"
0B"
0C"
0D"
0E"
0F"
0G"
0H"
1I"
0J"
$end
#127
03"
0@"
1H"
#128
b1111110010101000000000 .
b100110010110011000000000 Q
b0 4"
0I"
#254
1%
#255
b10 "
0%
0H"
#256
b10101110010000100000000 .
b1 N
b0 Q
b0 q
13"
b111 4"
1@"
1I"
#383
03"
0@"
1H"
#384
b11111101000000100000000 .
b1110111101001100000000 Q
b0 4"
0I"
#511
0H"
#512
b10000010100011000000000 .
b0 Q
13"
b111 4"
1@"
1I"
#639
03"
0@"
1H"
#640
b11011010000101100000000 .
13"
1@"
0I"
#767
03"
0@"
0H"
#768
b11111101000000100000000 .
b110101101011000000000 Q
b0 4"
1I"
#894
1%
#895
b11 "
0%
1H"
#896
b100101100110100100000000 .
b10 N
b1111110100100000000000 Q
b1111110100100000000000 q
13"
b111 4"
1@"
0I"
#1023
03"
0@"
0H"
#1024
b101111011100100100000000 .
b11110110001101100000000 Q
b0 4"
1I"
#1151
b1 "
1H"
#1152
b11111111000111000000000 .
b11 N
b11111101001000000000000 Q
b11111101001000000000000 q
13"
b111 4"
1@"
0I"
#1279
03"
0@"
0H"
#1280
b101010110101001100000000 .
13"
1@"
1I"
#1407
03"
0@"
1H"
#1408
b101111001100100100000000 .
b100110010110011000000000 Q
b0 4"
0I"
#1534
1%
#1535
b10 "
0%
0H"
#1536
b110101001011000100000000 .
b1 N
b0 Q
b0 q
13"
b111 4"
1@"
1I"
#1663
03"
0@"
1H"
#1664
b111111000001000100000000 .
b1110111101001100000000 Q
b0 4"
0I"
#1790
1%
#1791
b11 "
0%
0H"
#1792
b111111100001111000000000 .
b10 N
b1111110100100000000000 Q
b1111110100100000000000 q
13"
b111 4"
1@"
1I"
#1919
03"
0@"
1H"
#1920
b1001010011110001100000000 .
13"
1@"
0I"
#2047
03"
0@"
0H"
#2048
b1001110110101100100000000 .
b10110100001111000000000 Q
b0 4"
1I"
#2174
1%
#2175
b1 "
0%
1H"
#2176
b101111101100100000000 .
b11 N
b11111101001000000000000 Q
b11111101001000000000000 q
13"
b111 4"
1@"
0I"
#2303
03"
0@"
0H"
#2304
b1111110011100100000000 .
b101110100110001100000000 Q
b0 4"
1I"
#2430
1%
#2431
b10 "
0%
1H"
#2432
b10000010100011000000000 .
b1 N
b0 Q
b0 q
13"
b111 4"
1@"
0I"
#2559
03"
0@"
0H"
