MIPI_DDR3_HDMI/sim/Mipi_rx_test/.Xil/Vivado-26732-LAPTOP-H1858A6E/hw_ila_data_1/zip_work/waveform.vcd
$date
        2023-Nov-18 21:04:01
$end
$version
        Vivado v2022.2 (64-bit)
$end
$timescale
        1ps
$end
$scope module dut $end
$var reg 8 " O_Mipi_CSI_Byte_Lane0_Data [7:0] $end
$var reg 8 * O_Mipi_CSI_Byte_Lane1_Data [7:0] $end
$var reg 1 2 _TRIGGER $end
$var reg 1 3 _WINDOW $end
$var reg 1 4 _GAP $end
$upscope $end
$enddefinitions $end
#0
$dumpvars
b1100000 "
b1010000 *
02
13
04
$end
#1
b10000000 "
b1000000 *
#2
b1 "
b1 *
#3
b110 "
b101 *
#4
b11000 "
b10100 *
#5
b1100000 "
b1010000 *
#6
b10000000 "
b1000000 *
#7
b1 "
b1 *
#8
b100010 "
#9
b10000001 "
#10
b100 "
b100 *
#11
b10010 "
b10000 *
#12
b1001000 "
b1000000 *
#13
b100000 "
b0 *
#14
b10000001 "
b1 *
#15
b100 "
b100 *
#16
b10010 "
b10000 *
#17
b1001000 "
b1000000 *
#18
b100000 "
b0 *
#19
b1 "
b1 *
#20
b100010 *
#21
b100 "
b10001000 *
#22
b10000 "
b100000 *
#23
b1000000 "
b10000010 *
#24
b0 "
b1000 *
#25
b1 "
b100010 *
#26
b100 "
b10001000 *
#27
b10000 "
b100000 *
#28
b1000000 "
b10000010 *
#29
b0 "
b1000 *
#30
b1 "
b100010 *
#31
b100 "
b10001000 *
#32
b0 "
b0 *
#43
b100 "
b100 *
#44
b10000 "
b10000 *
#45
b1000000 "
b1000000 *
#46
b0 "
b0 *
#47
b1 "
b1 *
#48
b100 "
b100 *
#49
b10000 "
b10000 *
#50
b1000000 "
b1000000 *
#51
b0 "
b0 *
#52
b1 "
b1 *
#53
b100 "
b100 *
#54
b10000000 "
b0 *
#55
b0 "
b100 *
#56
b10 "
b10000 *
#57
b1000 "
b1000000 *
#58
b100000 "
b0 *
#59
b10000000 "
b1 *
#60
b0 "
b100 *
#61
b10 "
b10000 *
#62
b1000 "
b1000000 *
#63
b100000 "
b0 *
#64
b10000000 "
b1 *
#65
b0 "
b100 *
#66
b10 "
b10000 *
#67
b10000 "
b0 *
#68
b1000000 "
b10 *
#69
b0 "
b1000 *
#70
b1 "
b100000 *
#71
b100 "
b10000000 *
#72
b10000 "
b0 *
#73
b1000000 "
b10 *
#74
b0 "
b1000 *
#75
b1 "
b100000 *
#76
b100 "
b10000000 *
#77
b10000 "
b0 *
#78
b10010 *
#79
b1000000 "
b1000000 *
#80
b0 "
b0 *
#81
b1 "
b1 *
#82
b100 "
b100 *
#83
b10000 "
b10000 *
#84
b1000000 "
b1000000 *
#85
b0 "
b0 *
#86
b1 "
b1 *
#87
b100 "
b100 *
#88
b10000 "
b10000 *
#90
b1100000 "
b1010000 *
#91
b10000000 "
b1000000 *
#92
b1 "
b1 *
#93
b110 "
b101 *
#94
b11000 "
b10100 *
#95
b1100000 "
b1010000 *
#96
b10000000 "
b1000000 *
#97
b1 "
b1 *
#98
b110 "
b101 *
#99
b11000 "
b10100 *
#100
b1100000 "
b1010000 *
#101
b10000000 "
b1000000 *
#102
b1001000 "
#103
b100000 "
b0 *
#104
b10000001 "
b1 *
#105
b100 "
b100 *
#106
b10010 "
b10000 *
#107
b1001000 "
b1000000 *
#108
b100000 "
b0 *
#109
b10000001 "
b1 *
#110
b100 "
b100 *
#111
b10010 "
b10000 *
#112
b1001000 "
b1000000 *
#113
b1000000 "
b10000000 *
#114
b0 "
b1000 *
#115
b1 "
b100010 *
#116
b100 "
b10001000 *
#117
b10000 "
b100000 *
#118
b1000000 "
b10000010 *
#119
b0 "
b1000 *
#120
b1 "
b100010 *
#121
b100 "
b10001000 *
#122
b10000 "
b100000 *
#123
b1000000 "
b10000010 *
#124
b1001000 *
#125
b0 "
b0 *
#126
b1 "
b1 *
#127
b100 "
b100 *
#128
b10000 "
b10000 *
#129
b1000000 "
b1000000 *
#130
b0 "
b0 *
#131
b1 "
b1 *
#132
b100 "
b100 *
#133
b10000 "
b10000 *
#134
b1000000 "
b1000000 *
#135
b0 "
b0 *
#136
b1 "
b1 *
#138
b110 "
b101 *
#139
b11000 "
b10100 *
#140
b1100000 "
b1010000 *
#141
b10000000 "
b1000000 *
#142
b1 "
b1 *
#143
b110 "
b101 *
#144
b11000 "
b10100 *
#145
b1100000 "
b1010000 *
#146
b10000000 "
b1000000 *
#147
b1 "
b1 *
#148
b100010 "
#149
b10000001 "
b0 *
#150
b100 "
#151
b10010 "
#152
b1001000 "
#153
b100000 "
#154
b10000001 "
#155
b100 "
#156
b10010 "
#157
b1001000 "
#158
b100000 "
#159
b1 "
#160
b0 "
b110010 *
#161
b11001000 *
#162
b100000 *
#163
b10000011 *
#164
b1100 *
#165
b110010 *
#166
b11001000 *
#167
b100000 *
#168
b10000011 *
#169
b1100 *
#170
b110010 *
#171
b11001000 *
#172
b100 "
b100 *
#173
b10000 "
b10000 *
#174
b1000000 "
b1000000 *
#175
b0 "
b0 *
#176
b1 "
b1 *
#177
b100 "
b100 *
#178
b10000 "
b10000 *
#179
b1000000 "
b1000000 *
#180
b0 "
b0 *
#181
b1 "
b1 *
#182
b100 "
b100 *
#184
b11000 "
b10100 *
#185
b1100000 "
b1010000 *
#186
b10000000 "
b1000000 *
#187
b1 "
b1 *
#188
b110 "
b101 *
#189
b11000 "
b10100 *
#190
b1100000 "
b1010000 *
#191
b10000000 "
b1000000 *
#192
b1 "
b1 *
#193
b110 "
b101 *
#194
b10001000 "
b100 *
#195
b100 "
#196
b10010 "
b10000 *
#197
b1001000 "
b1000000 *
#198
b100000 "
b0 *
#199
b10000001 "
b1 *
#200
b100 "
b100 *
#201
b10010 "
b10000 *
#202
b1001000 "
b1000000 *
#203
b100000 "
b0 *
#204
b10000001 "
b1 *
#205
b100 "
b100 *
#206
b10010 "
b10000 *
#207
b10000 "
b100000 *
#208
b1000000 "
b10000010 *
#209
b0 "
b1000 *
#210
b1 "
b100010 *
#211
b100 "
b10001000 *
#212
b10000 "
b100000 *
#213
b1000000 "
b10000010 *
#214
b0 "
b1000 *
#215
b1 "
b100010 *
#216
b100 "
b10001000 *
#217
b10000 "
b100000 *
#218
b1000 "
b110 *
#219
b100000 "
b11100 *
#220
b10000000 "
b1110000 *
#221
b0 "
b11000000 *
#222
b10 "
b1 *
#223
b1000 "
b111 *
#224
b100000 "
b11100 *
#225
b10000000 "
b1110000 *
#226
b0 "
b11000000 *
#227
b10 "
b1 *
#228
b1000 "
b111 *
#229
b10000 "
b1100 *
#230
b1001000 "
b0 *
#231
b100000 "
#232
b10000001 "
#233
b100 "
#234
b10010 "
#235
b1001000 "
#236
b100000 "
#237
b10000001 "
#238
b100 "
#239
b10010 "
#240
b1001000 "
#241
b100000 "
#242
b0 "
#254
b11 *
#255
b1100 *
#256
b110000 *
#257
b11000000 *
#258
b0 *
#259
b11 *
#260
b1100 *
#261
b110000 *
#262
b11000000 *
#263
b0 *
#264
b11 *
#265
b0 *
#277
b1000001 "
b1 *
#278
b100 "
b100 *
#279
b10001 "
b10000 *
#280
b1000100 "
b1000000 *
#281
b10000 "
b0 *
#282
b1000001 "
b1 *
#283
b100 "
b100 *
#284
b10001 "
b10000 *
#285
b1000100 "
b1000000 *
#286
b10000 "
b0 *
#287
b1000001 "
b1 *
#288
b100000 "
b0 *
#289
b10000000 "
#290
b0 "
#291
b10 "
#292
b1000 "
#293
b100000 "
#294
b10000000 "
#295
b0 "
#296
b10 "
#297
b1000 "
#298
b100000 "
#299
b0 "
#312
b100 "
b100 *
#313
b10000 "
b10000 *
#314
b1000000 "
b1000000 *
#315
b0 "
b0 *
#316
b1 "
b1 *
#317
b100 "
b100 *
#318
b10000 "
b10000 *
#319
b1000000 "
b1000000 *
#320
b0 "
b0 *
#321
b1 "
b1 *
#322
b100 "
b100 *
#324
b11000 "
b10100 *
#325
b1100000 "
b1010000 *
#326
b10000000 "
b1000000 *
#327
b1 "
b1 *
#328
b110 "
b101 *
#329
b11000 "
b10100 *
#330
b1100000 "
b1010000 *
#331
b10000000 "
b1000000 *
#332
b1 "
b1 *
#333
b110 "
b101 *
#334
b10001000 "
b100 *
#335
b100 "
#336
b10010 "
b10000 *
#337
b1001000 "
b1000000 *
#338
b100000 "
b0 *
#339
b10000001 "
b1 *
#340
b100 "
b100 *
#341
b10010 "
b10000 *
#342
b1001000 "
b1000000 *
#343
b100000 "
b0 *
#344
b10000001 "
b1 *
#345
b100 "
b100 *
#346
b10010 "
b10000 *
#347
b10000 "
b100000 *
#348
b1000000 "
b10000010 *
#349
b0 "
b1000 *
#350
b1 "
b100010 *
#351
b100 "
b10001000 *
#352
b10000 "
b100000 *
#353
b1000000 "
b10000010 *
#354
b0 "
b1000 *
#355
b1 "
b100010 *
#356
b100 "
b10001000 *
#357
b10000 "
b100000 *
#358
b10010 *
#359
b1001000 "
b1001100 *
#360
b100000 "
b110000 *
#361
b10000001 "
b11000001 *
#362
b100 "
b100 *
#363
b10010 "
b10011 *
#364
b1001000 "
b1001100 *
#365
b100000 "
b110000 *
#366
b10000001 "
b11000001 *
#367
b100 "
b100 *
#368
b10010 "
b10011 *
#369
b1000 "
b1100 *
#370
b100000 "
b10000 *
#371
b10000000 "
b1000000 *
#372
b0 "
b0 *
#373
b10 "
b1 *
#374
b1000 "
b100 *
#375
b100000 "
b10000 *
#376
b10000000 "
b1000000 *
#377
b0 "
b0 *
#378
b10 "
b1 *
#379
b1000 "
b100 *
#380
b100000 "
b10000 *
#381
b10000000 "
b1000000 *
#382
b1001011 "
#383
b101100 "
b0 *
#384
b10110001 "
b1 *
#385
b11000100 "
b100 *
#386
b10010 "
b10000 *
#387
b1001011 "
b1000000 *
#388
b101100 "
b0 *
#389
b10110001 "
b1 *
#390
b11000100 "
b100 *
#391
b10010 "
b10000 *
#392
b1001011 "
b1000000 *
#393
b1000000 "
b10000000 *
#394
b0 "
b1000 *
#395
b1 "
b100010 *
#396
b100 "
b10001000 *
#397
b10000 "
b100000 *
#398
b1000000 "
b10000010 *
#399
b0 "
b1000 *
#400
b1 "
b100010 *
#401
b100 "
b10001000 *
#402
b10000 "
b100000 *
#403
b1000000 "
b10000010 *
#404
b1001000 *
#405
b0 "
b0 *
#406
b1 "
b1 *
#407
b100 "
b100 *
#408
b10000 "
b10000 *
#409
b1000000 "
b1000000 *
#410
b0 "
b0 *
#411
b1 "
b1 *
#412
b100 "
b100 *
#413
b10000 "
b10000 *
#414
b1000000 "
b1000000 *
#415
b0 "
b0 *
#416
b1 "
b1 *
#418
b110 "
b101 *
#419
b11000 "
b10100 *
#420
b1100000 "
b1010000 *
#421
b10000000 "
b1000000 *
#422
b1 "
b1 *
#423
b110 "
b101 *
#424
b11000 "
b10100 *
#425
b1100000 "
b1010000 *
#426
b10000000 "
b1000000 *
#427
b1 "
b1 *
#428
b100010 "
#429
b10000001 "
b0 *
#430
b100 "
#431
b10010 "
#432
b1001000 "
#433
b100000 "
#434
b10000001 "
#435
b100 "
#436
b10010 "
#437
b1001000 "
#438
b100000 "
#439
b1 "
#440
b0 "
b10 *
#441
b1000 *
#442
b100000 *
#443
b10000000 *
#444
b0 *
#445
b10 *
#446
b1000 *
#447
b100000 *
#448
b10000000 *
#449
b0 *
#450
b10 *
#451
b1000 *
#452
b100 "
b100 *
#453
b10010 "
b10000 *
#454
b1001000 "
b1000000 *
#455
b100000 "
b0 *
#456
b10000001 "
b1 *
#457
b100 "
b100 *
#458
b10010 "
b10000 *
#459
b1001000 "
b1000000 *
#460
b100000 "
b0 *
#461
b10000001 "
b1 *
#462
b100 "
b100 *
#463
b10 "
b0 *
#464
b1000 "
b100 *
#465
b100000 "
b10000 *
#466
b10000000 "
b1000000 *
#467
b0 "
b0 *
#468
b10 "
b1 *
#469
b1000 "
b100 *
#470
b100000 "
b10000 *
#471
b10000000 "
b1000000 *
#472
b0 "
b0 *
#473
b10 "
b1 *
#474
b101000 "
b100 *
#475
b10000100 "
#476
b10000 "
b10000 *
#477
b1000010 "
b1000000 *
#478
b1000 "
b0 *
#479
b100001 "
b1 *
#480
b10000100 "
b100 *
#481
b10000 "
b10000 *
#482
b1000010 "
b1000000 *
#483
b1000 "
b0 *
#484
b100001 "
b1 *
#485
b10000100 "
b100 *
#486
b10000 "
b10000 *
#487
b100000 *
#488
b1000000 "
b10000010 *
#489
b0 "
b1000 *
#490
b1 "
b100010 *
#491
b100 "
b10001000 *
#492
b10000 "
b100000 *
#493
b1000000 "
b10000010 *
#494
b0 "
b1000 *
#495
b1 "
b100010 *
#496
b100 "
b10001000 *
#497
b10000 "
b100000 *
#498
b10010 *
#499
b1000000 "
b1000000 *
#500
b0 "
b0 *
#501
b1 "
b1 *
#502
b100 "
b100 *
#503
b10000 "
b10000 *
#504
b1000000 "
b1000000 *
#505
b0 "
b0 *
#506
b1 "
b1 *
#507
b100 "
b100 *
#508
b10000 "
b10000 *
#510
b1100000 "
b1010000 *
#511
b10000000 "
b1000000 *
#512
b1 "
b1 *
#513
b110 "
b101 *
#514
b11000 "
b10100 *
#515
b1100000 "
b1010000 *
#516
b10000000 "
b1000000 *
#517
b1 "
b1 *
#518
b110 "
b101 *
#519
b11000 "
b10100 *
#520
b1100000 "
b1010000 *
#521
b10000000 "
b1000000 *
#522
b1001000 "
#523
b100000 "
b0 *
#524
b10000001 "
b1 *
#525
b100 "
b100 *
#526
b10010 "
b10000 *
#527
b1001000 "
b1000000 *
#528
b100000 "
b0 *
#529
b10000001 "
b1 *
#530
b100 "
b100 *
#531
b10010 "
b10000 *
#532
b1001000 "
b1000000 *
#533
b1000000 "
b10000000 *
#534
b0 "
b1000 *
#535
b1 "
b100010 *
#536
b100 "
b10001000 *
#537
b10000 "
b100000 *
#538
b1000000 "
b10000010 *
#539
b0 "
b1000 *
#540
b1 "
b100010 *
#541
b100 "
b10001000 *
#542
b10000 "
b100000 *
#543
b1000000 "
b10000010 *
#544
b1001000 *
#545
b0 "
b0 *
#546
b1 "
b1 *
#547
b100 "
b100 *
#548
b10000 "
b10000 *
#549
b1000000 "
b1000000 *
#550
b0 "
b0 *
#551
b1 "
b1 *
#552
b100 "
b100 *
#553
b10000 "
b10000 *
#554
b1000000 "
b1000000 *
#555
b0 "
b0 *
#556
b1 "
b1 *
#558
b110 "
b101 *
#559
b11000 "
b10100 *
#560
b1100000 "
b1010000 *
#561
b10000000 "
b1000000 *
#562
b1 "
b1 *
#563
b110 "
b101 *
#564
b11000 "
b10100 *
#565
b1100000 "
b1010000 *
#566
b10000000 "
b1000000 *
#567
b1 "
b1 *
#568
b100010 "
#569
b10000001 "
#570
b100 "
b100 *
#571
b10010 "
b10000 *
#572
b1001000 "
b1000000 *
#573
b100000 "
b0 *
#574
b10000001 "
b1 *
#575
b100 "
b100 *
#576
b10010 "
b10000 *
#577
b1001000 "
b1000000 *
#578
b100000 "
b0 *
#579
b1 "
b1 *
#580
b100010 *
#581
b100 "
b10001000 *
#582
b10000 "
b100000 *
#583
b1000000 "
b10000010 *
#584
b0 "
b1000 *
#585
b1 "
b100010 *
#586
b100 "
b10001000 *
#587
b10000 "
b100000 *
#588
b1000000 "
b10000010 *
#589
b0 "
b1000 *
#590
b1 "
b100010 *
#591
b100 "
b10001000 *
#592
b100 *
#593
b10000 "
b10000 *
#594
b1000000 "
b1000000 *
#595
b0 "
b0 *
#596
b1 "
b1 *
#597
b100 "
b100 *
#598
b10000 "
b10000 *
#599
b1000000 "
b1000000 *
#600
b0 "
b0 *
#601
b1 "
b1 *
#602
b100 "
b100 *
#603
b0 "
b0 *
#604
b1000 "
b100 *
#605
b100000 "
b10000 *
#606
b10000000 "
b1000000 *
#607
b0 "
b0 *
#608
b10 "
b1 *
#609
b1000 "
b100 *
#610
b100000 "
b10000 *
#611
b10000000 "
b1000000 *
#612
b0 "
b0 *
#613
b10 "
b1 *
#614
b1000 "
b100 *
#615
b100 "
#616
b10000 "
b10000 *
#617
b1000000 "
b1000000 *
#618
b0 "
b0 *
#619
b1 "
b1 *
#620
b100 "
b100 *
#621
b10000 "
b10000 *
#622
b1000000 "
b1000000 *
#623
b0 "
b0 *
#624
b1 "
b1 *
#625
b100 "
b100 *
#626
b10000 "
b10000 *
#627
b100000 *
#628
b1000000 "
b10000010 *
#629
b0 "
b1000 *
#630
b1 "
b100010 *
#631
b100 "
b10001000 *
#632
b10000 "
b100000 *
#633
b1000000 "
b10000010 *
#634
b0 "
b1000 *
#635
b1 "
b100010 *
#636
b100 "
b10001000 *
#637
b10000 "
b100000 *
#638
b10010 *
#639
b1000000 "
b1000000 *
#640
b0 "
b0 *
#641
b1 "
b1 *
#642
b100 "
b100 *
#643
b10000 "
b10000 *
#644
b1000000 "
b1000000 *
#645
b0 "
b0 *
#646
b1 "
b1 *
#647
b100 "
b100 *
#648
b10000 "
b10000 *
#650
b1100000 "
b1010000 *
#651
b10000000 "
b1000000 *
#652
b1 "
b1 *
#653
b110 "
b101 *
#654
b11000 "
b10100 *
#655
b1100000 "
b1010000 *
#656
b10000000 "
b1000000 *
#657
b1 "
b1 *
#658
b110 "
b101 *
#659
b11000 "
b10100 *
#660
b1100000 "
b1010000 *
#661
b10000000 "
b1000000 *
#662
b1001000 "
#663
b100000 "
b0 *
#664
b10000001 "
b1 *
#665
b100 "
b100 *
#666
b10010 "
b10000 *
#667
b1001000 "
b1000000 *
#668
b100000 "
b0 *
#669
b10000001 "
b1 *
#670
b100 "
b100 *
#671
b10010 "
b10000 *
#672
b1001000 "
b1000000 *
#673
b1000000 "
b10000000 *
#674
b0 "
b1000 *
#675
b1 "
b100010 *
#676
b100 "
b10001000 *
#677
b10000 "
b100000 *
#678
b1000000 "
b10000010 *
#679
b0 "
b1000 *
#680
b1 "
b100010 *
#681
b100 "
b10001000 *
#682
b10000 "
b100000 *
#683
b1000000 "
b10000010 *
#684
b1000 *
#685
b0 "
b0 *
#686
b1 "
#687
b100 "
#688
b10000 "
#689
b1000000 "
#690
b0 "
#691
b1 "
#692
b100 "
#693
b10000 "
#694
b1000000 "
#695
b0 "
#696
b1 "
#697
b1 *
#698
b111 "
b101 *
#699
b11100 "
b10100 *
#700
b1110000 "
b1010000 *
#701
b11000000 "
b1000000 *
#702
b1 "
b1 *
#703
b111 "
b101 *
#704
b11100 "
b10100 *
#705
b1110000 "
b1010000 *
#706
b11000000 "
b1000000 *
#707
b1 "
b1 *
#708
b100011 "
#709
b10000001 "
#710
b100 "
b100 *
#711
b10010 "
b10000 *
#712
b1001000 "
b1000000 *
#713
b100000 "
b0 *
#714
b10000001 "
b1 *
#715
b100 "
b100 *
#716
b10010 "
b10000 *
#717
b1001000 "
b1000000 *
#718
b100000 "
b0 *
#719
b1 "
b1 *
#720
b100010 *
#721
b100 "
b10001000 *
#722
b10000 "
b100000 *
#723
b1000000 "
b10000010 *
#724
b0 "
b1000 *
#725
b1 "
b100010 *
#726
b100 "
b10001000 *
#727
b10000 "
b100000 *
#728
b1000000 "
b10000010 *
#729
b0 "
b1000 *
#730
b1 "
b100010 *
#731
b100 "
b10001000 *
#732
b100 *
#733
b10011 "
b10010 *
#734
b1001100 "
b1001000 *
#735
b110000 "
b100000 *
#736
b11000001 "
b10000001 *
#737
b100 "
b100 *
#738
b10011 "
b10010 *
#739
b1001100 "
b1001000 *
#740
b110000 "
b100000 *
#741
b11000001 "
b10000001 *
#742
b100 "
b100 *
#743
b11 "
b10 *
#744
b1000 "
b1 *
#745
b100000 "
b100 *
#746
b10000000 "
b10000 *
#747
b0 "
b1000000 *
#748
b10 "
b0 *
#749
b1000 "
b1 *
#750
b100000 "
b100 *
#751
b10000000 "
b10000 *
#752
b0 "
b1000000 *
#753
b10 "
b0 *
#754
b11000 "
b1 *
#755
b1000000 "
b11 *
#756
b0 "
b1100 *
#757
b1 "
b110000 *
#758
b100 "
b11000000 *
#759
b10000 "
b0 *
#760
b1000000 "
b11 *
#761
b0 "
b1100 *
#762
b1 "
b110000 *
#763
b100 "
b11000000 *
#764
b10000 "
b0 *
#765
b1000000 "
b11 *
#766
b0 "
b1100 *
#767
b1100 "
b10000100 *
#768
b110000 "
b10001 *
#769
b11000000 "
b1000110 *
#770
b0 "
b11000 *
#771
b11 "
b1100001 *
#772
b1100 "
b10000100 *
#773
b110000 "
b10001 *
#774
b11000000 "
b1000110 *
#775
b0 "
b11000 *
#776
b11 "
b1100001 *
#777
b1100 "
b10000100 *
#778
b10000 "
b10001 *
#779
b1000000 "
b1000000 *
#780
b0 "
b0 *
#781
b1 "
b1 *
#782
b100 "
b100 *
#783
b10000 "
b10000 *
#784
b1000000 "
b1000000 *
#785
b0 "
b0 *
#786
b1 "
b1 *
#787
b100 "
b100 *
#788
b10000 "
b10000 *
#790
b1100000 "
b1010000 *
#791
b10000000 "
b1000000 *
#792
b1 "
b1 *
#793
b110 "
b101 *
#794
b11000 "
b10100 *
#795
b1100000 "
b1010000 *
#796
b10000000 "
b1000000 *
#797
b1 "
b1 *
#798
b110 "
b101 *
#799
b11000 "
b10100 *
#800
b1100000 "
b1010000 *
#801
b10000000 "
b1000000 *
#802
b1001000 "
#803
b100000 "
b0 *
#804
b10000001 "
b1 *
#805
b100 "
b100 *
#806
b10010 "
b10000 *
#807
b1001000 "
b1000000 *
#808
b100000 "
b0 *
#809
b10000001 "
b1 *
#810
b100 "
b100 *
#811
b10010 "
b10000 *
#812
b1001000 "
b1000000 *
#813
b1000000 "
b10000000 *
#814
b0 "
b1000 *
#815
b1 "
b100010 *
#816
b100 "
b10001000 *
#817
b10000 "
b100000 *
#818
b1000000 "
b10000010 *
#819
b0 "
b1000 *
#820
b1 "
b100010 *
#821
b100 "
b10001000 *
#822
b10000 "
b100000 *
#823
b1000000 "
b10000010 *
#824
b111000 *
#825
b0 "
b11000000 *
#826
b1 "
b0 *
#827
b100 "
b11 *
#828
b10000 "
b1100 *
#829
b1000000 "
b110000 *
#830
b0 "
b11000000 *
#831
b1 "
b0 *
#832
b100 "
b11 *
#833
b10000 "
b1100 *
#834
b1000000 "
b110000 *
#835
b0 "
b11000000 *
#836
b1 "
b0 *
#837
b1 *
#838
b101 "
b101 *
#839
b10100 "
b10100 *
#840
b1010000 "
b1010000 *
#841
b1000000 "
b1000000 *
#842
b1 "
b1 *
#843
b101 "
b101 *
#844
b10100 "
b10100 *
#845
b1010000 "
b1010000 *
#846
b1000000 "
b1000000 *
#847
b1 "
b1 *
#848
b100001 "
#849
b10000001 "
#850
b100 "
b100 *
#851
b10010 "
b10000 *
#852
b1001000 "
b1000000 *
#853
b100000 "
b0 *
#854
b10000001 "
b1 *
#855
b100 "
b100 *
#856
b10010 "
b10000 *
#857
b1001000 "
b1000000 *
#858
b100000 "
b0 *
#859
b1 "
b1 *
#860
b100010 *
#861
b100 "
b10001000 *
#862
b10000 "
b100000 *
#863
b1000000 "
b10000010 *
#864
b0 "
b1000 *
#865
b1 "
b100010 *
#866
b100 "
b10001000 *
#867
b10000 "
b100000 *
#868
b1000000 "
b10000010 *
#869
b0 "
b1000 *
#870
b1 "
b100010 *
#871
b100 "
b10001000 *
#872
b100 *
#873
b10001 "
b10000 *
#874
b1000100 "
b1000000 *
#875
b10000 "
b0 *
#876
b1000001 "
b1 *
#877
b100 "
b100 *
#878
b10001 "
b10000 *
#879
b1000100 "
b1000000 *
#880
b10000 "
b0 *
#881
b1000001 "
b1 *
#882
b100 "
b100 *
#883
b1 "
b0 *
#884
b1000 "
b1 *
#885
b100000 "
b100 *
#886
b10000000 "
b10000 *
#887
b0 "
b1000000 *
#888
b10 "
b0 *
#889
b1000 "
b1 *
#890
b100000 "
b100 *
#891
b10000000 "
b10000 *
#892
b0 "
b1000000 *
#893
b10 "
b0 *
#894
b101000 "
b1 *
#895
b10000000 "
b100 *
#896
b0 "
b10000 *
#897
b10 "
b1000000 *
#898
b1000 "
b0 *
#899
b100000 "
b1 *
#900
b10000000 "
b100 *
#901
b0 "
b10000 *
#902
b10 "
b1000000 *
#903
b1000 "
b0 *
#904
b100000 "
b1 *
#905
b10000000 "
b100 *
#906
b0 "
b10000 *
#907
b10000 "
b1100 *
#908
b1000000 "
b110010 *
#909
b0 "
b11001000 *
#910
b1 "
b100000 *
#911
b100 "
b10000011 *
#912
b10000 "
b1100 *
#913
b1000000 "
b110010 *
#914
b0 "
b11001000 *
#915
b1 "
b100000 *
#916
b100 "
b10000011 *
#917
b10000 "
b1100 *
#918
b10010 *
#919
b1000000 "
b1000000 *
#920
b0 "
b0 *
#921
b1 "
b1 *
#922
b100 "
b100 *
#923
b10000 "
b10000 *
#924
b1000000 "
b1000000 *
#925
b0 "
b0 *
#926
b1 "
b1 *
#927
b100 "
b100 *
#928
b10000 "
b10000 *
#930
b1100000 "
b1010000 *
#931
b10000000 "
b1000000 *
#932
b1 "
b1 *
#933
b110 "
b101 *
#934
b11000 "
b10100 *
#935
b1100000 "
b1010000 *
#936
b10000000 "
b1000000 *
#937
b1 "
b1 *
#938
b110 "
b101 *
#939
b11000 "
b10100 *
#940
b1100000 "
b1010000 *
#941
b10000000 "
b1000000 *
#942
b1001000 "
b0 *
#943
b100000 "
#944
b10000001 "
#945
b100 "
#946
b10010 "
#947
b1001000 "
#948
b100000 "
#949
b10000001 "
#950
b100 "
#951
b10010 "
#952
b1001000 "
#953
b0 "
b10000000 *
#954
b0 *
#955
b10 *
#956
b1000 *
#957
b100000 *
#958
b10000000 *
#959
b0 *
#960
b10 *
#961
b1000 *
#962
b100000 *
#963
b10000000 *
#964
b100000 "
b10000 *
#965
b10000000 "
b1000000 *
#966
b0 "
b0 *
#967
b10 "
b1 *
#968
b1000 "
b100 *
#969
b100000 "
b10000 *
#970
b10000000 "
b1000000 *
#971
b0 "
b0 *
#972
b10 "
b1 *
#973
b1000 "
b100 *
#974
b100000 "
b10000 *
#975
b10000000 "
b1000000 *
#976
b0 "
b0 *
#977
b1 "
b10000001 *
#978
b101 "
b100 *
#979
b10100 "
b10010 *
#980
b1010000 "
b1001000 *
#981
b1000000 "
b100000 *
#982
b1 "
b10000001 *
#983
b101 "
b100 *
#984
b10100 "
b10010 *
#985
b1010000 "
b1001000 *
#986
b1000000 "
b100000 *
#987
b1 "
b10000001 *
#988
b100001 "
b0 *
#989
b10000001 "
b1 *
#990
b100 "
b100 *
#991
b10010 "
b10000 *
#992
b1001000 "
b1000000 *
#993
b100000 "
b0 *
#994
b10000001 "
b1 *
#995
b100 "
b100 *
#996
b10010 "
b10000 *
#997
b1001000 "
b1000000 *
#998
b100000 "
b0 *
#999
b1 "
b1000001 *
#1000
b100010 *
#1001
b100 "
b10001001 *
#1002
b10000 "
b100100 *
#1003
b1000000 "
b10010010 *
#1004
b0 "
b1001000 *
#1005
b1 "
b100010 *
#1006
b100 "
b10001001 *
#1007
b10000 "
b100100 *
#1008
b1000000 "
b10010010 *
#1009
b0 "
b1001000 *
#1010
b1 "
b100010 *
#1011
b100 "
b10001001 *
#1012
b0 "
b1 *
#1013
b101 *
#1014
b10100 *
#1015
b1010000 *
#1016
b1000000 *
#1017
b1 *
#1018
b101 *
#1019
b10100 *
#1020
b1010000 *
#1021
b1000000 *
#1022
b1 *
#1024
b100 *
12
#1025
b10000 *
#1026
b1000000 *
#1027
b0 *
#1028
b1 *
#1029
b100 *
#1030
b10000 *
#1031
b1000000 *
#1032
b0 *
#1033
b1 *
#1034
b100 *
#1035
b1 "
#1036
b100 "
b10000 *
#1037
b10000 "
b1000000 *
#1038
b1000000 "
b0 *
#1039
b0 "
b1 *
#1040
b1 "
b100 *
#1041
b100 "
b10000 *
#1042
b10000 "
b1000000 *
#1043
b1000000 "
b0 *
#1044
b0 "
b1 *
#1045
b1 "
b100 *
#1046
b100 "
b10000 *
#1047
b10000 "
b0 *
#1048
b1000000 "
b10 *
#1049
b0 "
b1000 *
#1050
b1 "
b100000 *
#1051
b100 "
b10000000 *
#1052
b10000 "
b0 *
#1053
b1000000 "
b10 *
#1054
b0 "
b1000 *
#1055
b1 "
b100000 *
#1056
b100 "
b10000000 *
#1057
b10000 "
b0 *
#1058
b10010 *
#1059
b1000000 "
b1000000 *
#1060
b0 "
b0 *
#1061
b1 "
b1 *
#1062
b100 "
b100 *
#1063
b10000 "
b10000 *
#1064
b1000000 "
b1000000 *
#1065
b0 "
b0 *
#1066
b1 "
b1 *
#1067
b100 "
b100 *
#1068
b10000 "
b10000 *
#1069
b0 "
b0 *
#1070
b100000 "
b10000 *
#1071
b10000000 "
b1000000 *
#1072
b0 "
b0 *
#1073
b10 "
b1 *
#1074
b1000 "
b100 *
#1075
b100000 "
b10000 *
#1076
b10000000 "
b1000000 *
#1077
b0 "
b0 *
#1078
b10 "
b1 *
#1079
b1000 "
b100 *
#1080
b100000 "
b10000 *
#1081
b10000000 "
b1000000 *
#1082
b1000000 "
#1083
b0 "
b0 *
#1084
b1 "
b1 *
#1085
b100 "
b100 *
#1086
b10000 "
b10000 *
#1087
b1000000 "
b1000000 *
#1088
b0 "
b0 *
#1089
b1 "
b1 *
#1090
b100 "
b100 *
#1091
b10000 "
b10000 *
#1092
b1000000 "
b1000000 *
#1093
b10000000 *
#1094
b0 "
b1000 *
#1095
b1 "
b100010 *
#1096
b100 "
b10001000 *
#1097
b10000 "
b100000 *
#1098
b1000000 "
b10000010 *
#1099
b0 "
b1000 *
#1100
b1 "
b100010 *
#1101
b100 "
b10001000 *
#1102
b10000 "
b100000 *
#1103
b1000000 "
b10000010 *
#1104
b1001000 *
#1105
b0 "
b0 *
#1106
b1 "
b1 *
#1107
b100 "
b100 *
#1108
b10000 "
b10000 *
#1109
b1000000 "
b1000000 *
#1110
b0 "
b0 *
#1111
b1 "
b1 *
#1112
b100 "
b100 *
#1113
b10000 "
b10000 *
