MIPI_DDR3_HDMI/prj/MIPI_DDR3_HDMI/.Xil/Vivado-18292-LAPTOP-H1858A6E/hw_ila_data_1/zip_work/waveform.vcd
$date
        2024-Jan-09 14:09:28
$end
$version
        Vivado v2022.2 (64-bit)
$end
$timescale
        1ps
$end
$scope module dut $end
$var reg 1 " DMA_Custom/Pose_Wr_Rst_Sync $end
$var reg 32 # DMA_Custom/wr_base_addr [31:0] $end
$var reg 3 C DMA_Custom/wr_index [2:0] $end
$var reg 1 F DMA_Custom/Aw_running $end
$var reg 32 G DMA_Custom/m_axi_awaddr [31:0] $end
$var reg 1 g DMA_Custom/Pose_Rd_Rst_Sync $end
$var reg 32 h DMA_Custom/rd_base_addr [31:0] $end
$var reg 3 *" DMA_Custom/rd_index [2:0] $end
$var reg 1 -" DMA_Custom/Ar_running $end
$var reg 32 ." DMA_Custom/m_axi_araddr [31:0] $end
$var reg 1 N" _TRIGGER $end
$var reg 1 O" _WINDOW $end
$var reg 1 P" _GAP $end
$upscope $end
$enddefinitions $end
#0
$dumpvars
0"
b1111110100100000000000 #
b11 C
0F
b11111100110001100000000 G
0g
b0 h
b10 *"
0-"
b1111000000000 ."
0N"
1O"
0P"
$end
#127
1g
1N"
#128
0g
b1111110100100000000000 h
#129
b1111110100100000000000 ."
#136
1-"
#137
b1111110101011100000000 ."
#256
b0 #
b10 C
b1010010011000100000000 G
0-"
b1111110110011000000000 ."
0O"
#383
1g
0N"
#384
0g
b1 *"
#385
b1111110100100000000000 ."
#392
1-"
#393
b1111110101011100000000 ."
#426
1F
#427
b1010010100000000000000 G
#512
0F
b100110100011100000000 G
0-"
b1111110110011000000000 ."
1O"
#639
1g
1N"
#640
0g
b0 h
#641
b0 ."
#648
1-"
#649
b111100000000 ."
#768
b1111110000110000000000 G
0-"
b1111000000000 ."
0O"
#895
1g
0N"
#896
0g
#897
b0 ."
#904
1-"
#905
b111100000000 ."
#1024
b1111110100100000000000 #
b11 C
b11010000111100100000000 G
0-"
b1111000000000 ."
1O"
#1151
1g
1N"
#1152
0g
b10 *"
#1153
b0 ."
#1160
1-"
#1161
b111100000000 ."
#1243
1F
#1244
b11010001000100000000000 G
#1280
b11111101001000000000000 #
b1 C
0F
b100100011110011000000000 G
0-"
b1111000000000 ."
0O"
#1407
1g
0N"
#1408
0g
b1111110100100000000000 h
b11 *"
#1409
b1111110100100000000000 ."
#1416
1-"
#1417
b1111110101011100000000 ."
#1536
b101111011010101100000000 G
0-"
b1111110110011000000000 ."
1O"
#1663
1g
1N"
#1664
0g
b11111101001000000000000 h
#1665
b11111101001000000000000 ."
#1672
1-"
#1673
b11111101001111100000000 ."
#1792
b1111100000000000000000 #
b10 C
b11001110011000100000000 G
0-"
b11111101010111000000000 ."
0O"
#1919
1g
0N"
#1920
0g
b1 *"
#1921
b11111101001000000000000 ."
#1928
1-"
#1929
b11111101001111100000000 ."
#2048
b1111110100100000000000 #
b11 C
b10100101001111000000000 G
0-"
b11111101010111000000000 ."
1O"
#2175
1g
1N"
#2176
0g
b0 h
b10 *"
#2177
b0 ."
#2184
1-"
#2185
b111100000000 ."
#2304
b11111100110001100000000 G
0-"
b1111000000000 ."
0O"
#2431
1g
0N"
#2432
0g
b1111110100100000000000 h
#2433
b1111110100100000000000 ."
#2440
1-"
#2441
b1111110101011100000000 ."
#2560
b11111101001000000000000 #
b1 C
b101001111100000100000000 G
0-"
b1111110110011000000000 ."
1O"
#2687
1g
1N"
#2688
0g
b11 *"
#2689
b1111110100100000000000 ."
#2696
1-"
#2697
b1111110101011100000000 ."
#2816
b0 #
b10 C
b100110101011000000000 G
0-"
b1111110110011000000000 ."
0O"
#2943
1g
0N"
#2944
0g
b11111101001000000000000 h
b1 *"
#2945
b11111101001000000000000 ."
#2952
1-"
#2953
b11111101001111100000000 ."
#3072
b1111110001101100000000 G
0-"
b11111101010111000000000 ."
1O"
#3199
1g
1N"
#3200
0g
b0 h
#3201
b0 ."
#3208
1-"
#3209
b111100000000 ."
#3328
b1111110100100000000000 #
b11 C
b11010000111100100000000 G
0-"
b1111000000000 ."
0O"
#3455
1g
0N"
#3456
0g
b10 *"
#3457
b0 ."
#3464
1-"
#3465
b111100000000 ."
#3584
b100100011101011100000000 G
0-"
b1111000000000 ."
1O"
#3711
1g
1N"
#3712
0g
b1111110100100000000000 h
#3713
b1111110100100000000000 ."
#3720
1-"
#3721
b1111110101011100000000 ."
#3840
b101111011001110000000000 G
0-"
b1111110110011000000000 ."
0O"
#3967
1g
0N"
#3968
0g
#3969
b1111110100100000000000 ."
#3976
1-"
#3977
b1111110101011100000000 ."
